 __     __    _            _   _            
 \ \   / /_ _| | ___ _ __ | |_(_)_ __   ___ 
  \ \ / / _` | |/ _ \ '_ \| __| | '_ \ / _ \
   \ V / (_| | |  __/ | | | |_| | | | |  __/
    \_/ \__,_|_|\___|_| |_|\__|_|_| |_|\___|
                                            